Get difference of smooths from a GAM model — get_smooths_difference • tidymv
…
      time_series
      Deprecated, use series instead.

    Examples

library(mgcv)
set.seed(10)
data <- gamSim(4)

#> Factor `by' variable example
model <- gam(y ~ fac + s(x2) + s(x2, by = fac) + s(x0), data = data)

get_smooths_difference(model, x2, list(fac = c("1", "2")))

#> # A tibble: 100 x 8
#>         x2    x0 difference    SE    CI CI_upper CI_lower sig_diff
#>      <dbl> <dbl>      <dbl> <dbl> <dbl>    <dbl>    <dbl> <lgl>   
#>  1 0.00134 0.501       3.82 0.748 1.47      5.28     2.35 TRUE    
#>  2 0.0114  0.501       3.79 0.707 1.39      5.18     2.40 TRUE    
#>  3 0.0215  0.501       3.76 0.668 1.31      5.07     2.45 TRUE    
#>  4 0.0316  0.501       3.73 0.632 1.24      4.97     2.50 TRUE    
#>  5 0.0417  0.501       3.71 0.598 1.17      4.88     2.54 TRUE    
#>  6 0.0518  0.501       3.68 0.567 1.11      4.79     2.57 TRUE    
#>  7 0.0619  0.501       3.66 0.539 1.06      4.71     2.60 TRUE    
#>  8 0.0719  0.501       3.63 0.514 1.01      4.64     2.62 TRUE    
#>  9 0.0820  0.501       3.61 0.492 0.965     4.57     2.64 TRUE    
#> 10 0.0921  0.501       3.58 0.473 0.928     4.51     2.66 TRUE    
#> # … with 90 more rows
…
